PING 172.10.0.11 (172.10.0.11) 56(84) bytes of data.
64 bytes from 172.10.0.11: icmp_seq=1 ttl=63 time=0.104 ms
64 bytes from 172.10.0.11: icmp_seq=2 ttl=63 time=0.082 ms
64 bytes from 172.10.0.11: icmp_seq=3 ttl=63 time=0.055 ms
64 bytes from 172.10.0.11: icmp_seq=4 ttl=63 time=0.068 ms
64 bytes from 172.10.0.11: icmp_seq=5 ttl=63 time=0.047 ms
64 bytes from 172.10.0.11: icmp_seq=6 ttl=63 time=0.051 ms
64 bytes from 172.10.0.11: icmp_seq=7 ttl=63 time=0.052 ms
64 bytes from 172.10.0.11: icmp_seq=8 ttl=63 time=0.051 ms
64 bytes from 172.10.0.11: icmp_seq=9 ttl=63 time=0.052 ms
64 bytes from 172.10.0.11: icmp_seq=10 ttl=63 time=0.051 ms
64 bytes from 172.10.0.11: icmp_seq=11 ttl=63 time=0.063 ms
64 bytes from 172.10.0.11: icmp_seq=12 ttl=63 time=0.048 ms
64 bytes from 172.10.0.11: icmp_seq=13 ttl=63 time=0.048 ms
64 bytes from 172.10.0.11: icmp_seq=14 ttl=63 time=0.067 ms
64 bytes from 172.10.0.11: icmp_seq=15 ttl=63 time=0.047 ms
64 bytes from 172.10.0.11: icmp_seq=16 ttl=63 time=0.068 ms
64 bytes from 172.10.0.11: icmp_seq=17 ttl=63 time=0.119 ms
64 bytes from 172.10.0.11: icmp_seq=18 ttl=63 time=0.092 ms
64 bytes from 172.10.0.11: icmp_seq=19 ttl=63 time=0.082 ms
64 bytes from 172.10.0.11: icmp_seq=20 ttl=63 time=0.066 ms
64 bytes from 172.10.0.11: icmp_seq=21 ttl=63 time=0.287 ms
64 bytes from 172.10.0.11: icmp_seq=22 ttl=63 time=0.076 ms
64 bytes from 172.10.0.11: icmp_seq=23 ttl=63 time=0.072 ms
64 bytes from 172.10.0.11: icmp_seq=24 ttl=63 time=0.131 ms
64 bytes from 172.10.0.11: icmp_seq=25 ttl=63 time=0.095 ms
64 bytes from 172.10.0.11: icmp_seq=26 ttl=63 time=0.139 ms
64 bytes from 172.10.0.11: icmp_seq=27 ttl=63 time=0.082 ms
64 bytes from 172.10.0.11: icmp_seq=28 ttl=63 time=0.080 ms
64 bytes from 172.10.0.11: icmp_seq=29 ttl=63 time=0.133 ms
64 bytes from 172.10.0.11: icmp_seq=30 ttl=63 time=0.240 ms
64 bytes from 172.10.0.11: icmp_seq=31 ttl=63 time=0.207 ms
64 bytes from 172.10.0.11: icmp_seq=32 ttl=63 time=0.081 ms
64 bytes from 172.10.0.11: icmp_seq=33 ttl=63 time=0.109 ms
64 bytes from 172.10.0.11: icmp_seq=34 ttl=63 time=0.109 ms
64 bytes from 172.10.0.11: icmp_seq=35 ttl=63 time=0.115 ms
64 bytes from 172.10.0.11: icmp_seq=36 ttl=63 time=0.174 ms
64 bytes from 172.10.0.11: icmp_seq=37 ttl=63 time=0.099 ms
64 bytes from 172.10.0.11: icmp_seq=38 ttl=63 time=0.102 ms
64 bytes from 172.10.0.11: icmp_seq=39 ttl=63 time=0.095 ms
64 bytes from 172.10.0.11: icmp_seq=40 ttl=63 time=0.112 ms
64 bytes from 172.10.0.11: icmp_seq=41 ttl=63 time=0.076 ms
64 bytes from 172.10.0.11: icmp_seq=42 ttl=63 time=0.100 ms
64 bytes from 172.10.0.11: icmp_seq=43 ttl=63 time=0.128 ms
64 bytes from 172.10.0.11: icmp_seq=44 ttl=63 time=0.077 ms
64 bytes from 172.10.0.11: icmp_seq=45 ttl=63 time=0.067 ms
64 bytes from 172.10.0.11: icmp_seq=46 ttl=63 time=0.046 ms
64 bytes from 172.10.0.11: icmp_seq=47 ttl=63 time=0.031 ms
64 bytes from 172.10.0.11: icmp_seq=48 ttl=63 time=0.048 ms
64 bytes from 172.10.0.11: icmp_seq=49 ttl=63 time=0.062 ms
64 bytes from 172.10.0.11: icmp_seq=50 ttl=63 time=0.103 ms
64 bytes from 172.10.0.11: icmp_seq=51 ttl=63 time=0.104 ms
64 bytes from 172.10.0.11: icmp_seq=52 ttl=63 time=0.101 ms
64 bytes from 172.10.0.11: icmp_seq=53 ttl=63 time=0.103 ms
64 bytes from 172.10.0.11: icmp_seq=54 ttl=63 time=0.067 ms
64 bytes from 172.10.0.11: icmp_seq=55 ttl=63 time=0.100 ms
64 bytes from 172.10.0.11: icmp_seq=56 ttl=63 time=0.104 ms
64 bytes from 172.10.0.11: icmp_seq=57 ttl=63 time=0.041 ms
64 bytes from 172.10.0.11: icmp_seq=58 ttl=63 time=0.082 ms
64 bytes from 172.10.0.11: icmp_seq=59 ttl=63 time=0.098 ms
64 bytes from 172.10.0.11: icmp_seq=60 ttl=63 time=0.106 ms
64 bytes from 172.10.0.11: icmp_seq=61 ttl=63 time=0.123 ms
64 bytes from 172.10.0.11: icmp_seq=62 ttl=63 time=0.069 ms
64 bytes from 172.10.0.11: icmp_seq=63 ttl=63 time=0.098 ms
64 bytes from 172.10.0.11: icmp_seq=64 ttl=63 time=0.072 ms
64 bytes from 172.10.0.11: icmp_seq=65 ttl=63 time=0.073 ms
64 bytes from 172.10.0.11: icmp_seq=66 ttl=63 time=0.053 ms
64 bytes from 172.10.0.11: icmp_seq=67 ttl=63 time=0.028 ms
64 bytes from 172.10.0.11: icmp_seq=68 ttl=63 time=0.023 ms
64 bytes from 172.10.0.11: icmp_seq=69 ttl=63 time=0.020 ms
64 bytes from 172.10.0.11: icmp_seq=70 ttl=63 time=0.023 ms
64 bytes from 172.10.0.11: icmp_seq=71 ttl=63 time=0.022 ms
64 bytes from 172.10.0.11: icmp_seq=72 ttl=63 time=0.046 ms
64 bytes from 172.10.0.11: icmp_seq=73 ttl=63 time=0.022 ms
64 bytes from 172.10.0.11: icmp_seq=74 ttl=63 time=0.021 ms
64 bytes from 172.10.0.11: icmp_seq=75 ttl=63 time=0.024 ms
64 bytes from 172.10.0.11: icmp_seq=76 ttl=63 time=0.116 ms
64 bytes from 172.10.0.11: icmp_seq=77 ttl=63 time=0.060 ms
64 bytes from 172.10.0.11: icmp_seq=78 ttl=63 time=0.098 ms
64 bytes from 172.10.0.11: icmp_seq=79 ttl=63 time=0.054 ms
64 bytes from 172.10.0.11: icmp_seq=80 ttl=63 time=0.048 ms
64 bytes from 172.10.0.11: icmp_seq=81 ttl=63 time=0.047 ms
64 bytes from 172.10.0.11: icmp_seq=82 ttl=63 time=0.046 ms
64 bytes from 172.10.0.11: icmp_seq=83 ttl=63 time=0.046 ms
64 bytes from 172.10.0.11: icmp_seq=84 ttl=63 time=0.047 ms
64 bytes from 172.10.0.11: icmp_seq=85 ttl=63 time=0.047 ms
64 bytes from 172.10.0.11: icmp_seq=86 ttl=63 time=0.051 ms
64 bytes from 172.10.0.11: icmp_seq=87 ttl=63 time=0.085 ms
64 bytes from 172.10.0.11: icmp_seq=88 ttl=63 time=0.048 ms
64 bytes from 172.10.0.11: icmp_seq=89 ttl=63 time=0.064 ms
64 bytes from 172.10.0.11: icmp_seq=90 ttl=63 time=0.064 ms
64 bytes from 172.10.0.11: icmp_seq=91 ttl=63 time=0.062 ms
64 bytes from 172.10.0.11: icmp_seq=92 ttl=63 time=0.060 ms
64 bytes from 172.10.0.11: icmp_seq=93 ttl=63 time=0.160 ms
64 bytes from 172.10.0.11: icmp_seq=94 ttl=63 time=0.058 ms
64 bytes from 172.10.0.11: icmp_seq=95 ttl=63 time=0.060 ms
64 bytes from 172.10.0.11: icmp_seq=96 ttl=63 time=0.060 ms
64 bytes from 172.10.0.11: icmp_seq=97 ttl=63 time=0.060 ms
64 bytes from 172.10.0.11: icmp_seq=98 ttl=63 time=0.059 ms
64 bytes from 172.10.0.11: icmp_seq=99 ttl=63 time=0.093 ms
64 bytes from 172.10.0.11: icmp_seq=100 ttl=63 time=0.060 ms
64 bytes from 172.10.0.11: icmp_seq=101 ttl=63 time=0.093 ms
64 bytes from 172.10.0.11: icmp_seq=102 ttl=63 time=0.060 ms
64 bytes from 172.10.0.11: icmp_seq=103 ttl=63 time=0.067 ms
64 bytes from 172.10.0.11: icmp_seq=104 ttl=63 time=0.067 ms
64 bytes from 172.10.0.11: icmp_seq=105 ttl=63 time=0.064 ms
64 bytes from 172.10.0.11: icmp_seq=106 ttl=63 time=0.059 ms
64 bytes from 172.10.0.11: icmp_seq=107 ttl=63 time=0.094 ms
64 bytes from 172.10.0.11: icmp_seq=108 ttl=63 time=0.060 ms
64 bytes from 172.10.0.11: icmp_seq=109 ttl=63 time=0.062 ms
64 bytes from 172.10.0.11: icmp_seq=110 ttl=63 time=0.097 ms
64 bytes from 172.10.0.11: icmp_seq=111 ttl=63 time=0.096 ms
64 bytes from 172.10.0.11: icmp_seq=112 ttl=63 time=0.094 ms
64 bytes from 172.10.0.11: icmp_seq=113 ttl=63 time=0.116 ms
64 bytes from 172.10.0.11: icmp_seq=114 ttl=63 time=0.096 ms
64 bytes from 172.10.0.11: icmp_seq=115 ttl=63 time=0.093 ms
64 bytes from 172.10.0.11: icmp_seq=116 ttl=63 time=0.096 ms
64 bytes from 172.10.0.11: icmp_seq=117 ttl=63 time=0.060 ms
64 bytes from 172.10.0.11: icmp_seq=118 ttl=63 time=0.094 ms
64 bytes from 172.10.0.11: icmp_seq=119 ttl=63 time=0.060 ms
64 bytes from 172.10.0.11: icmp_seq=120 ttl=63 time=0.093 ms
64 bytes from 172.10.0.11: icmp_seq=121 ttl=63 time=0.060 ms
64 bytes from 172.10.0.11: icmp_seq=122 ttl=63 time=0.094 ms
64 bytes from 172.10.0.11: icmp_seq=123 ttl=63 time=0.093 ms
64 bytes from 172.10.0.11: icmp_seq=124 ttl=63 time=0.061 ms
64 bytes from 172.10.0.11: icmp_seq=125 ttl=63 time=0.060 ms
64 bytes from 172.10.0.11: icmp_seq=126 ttl=63 time=0.093 ms
64 bytes from 172.10.0.11: icmp_seq=127 ttl=63 time=0.092 ms
64 bytes from 172.10.0.11: icmp_seq=128 ttl=63 time=0.092 ms
64 bytes from 172.10.0.11: icmp_seq=129 ttl=63 time=0.081 ms
64 bytes from 172.10.0.11: icmp_seq=130 ttl=63 time=0.150 ms
64 bytes from 172.10.0.11: icmp_seq=131 ttl=63 time=0.062 ms
64 bytes from 172.10.0.11: icmp_seq=132 ttl=63 time=0.060 ms
64 bytes from 172.10.0.11: icmp_seq=133 ttl=63 time=0.061 ms
64 bytes from 172.10.0.11: icmp_seq=134 ttl=63 time=0.060 ms
64 bytes from 172.10.0.11: icmp_seq=135 ttl=63 time=0.060 ms
64 bytes from 172.10.0.11: icmp_seq=136 ttl=63 time=0.058 ms
64 bytes from 172.10.0.11: icmp_seq=137 ttl=63 time=0.060 ms
64 bytes from 172.10.0.11: icmp_seq=138 ttl=63 time=0.058 ms
64 bytes from 172.10.0.11: icmp_seq=139 ttl=63 time=0.060 ms
64 bytes from 172.10.0.11: icmp_seq=140 ttl=63 time=0.060 ms
64 bytes from 172.10.0.11: icmp_seq=141 ttl=63 time=0.061 ms
64 bytes from 172.10.0.11: icmp_seq=142 ttl=63 time=0.059 ms
64 bytes from 172.10.0.11: icmp_seq=143 ttl=63 time=0.059 ms
64 bytes from 172.10.0.11: icmp_seq=144 ttl=63 time=0.059 ms
64 bytes from 172.10.0.11: icmp_seq=145 ttl=63 time=0.060 ms
64 bytes from 172.10.0.11: icmp_seq=146 ttl=63 time=0.060 ms
64 bytes from 172.10.0.11: icmp_seq=147 ttl=63 time=0.060 ms
64 bytes from 172.10.0.11: icmp_seq=148 ttl=63 time=0.060 ms
64 bytes from 172.10.0.11: icmp_seq=149 ttl=63 time=0.062 ms
64 bytes from 172.10.0.11: icmp_seq=150 ttl=63 time=0.058 ms
64 bytes from 172.10.0.11: icmp_seq=151 ttl=63 time=0.059 ms
64 bytes from 172.10.0.11: icmp_seq=152 ttl=63 time=0.059 ms
64 bytes from 172.10.0.11: icmp_seq=153 ttl=63 time=0.044 ms
64 bytes from 172.10.0.11: icmp_seq=154 ttl=63 time=0.061 ms
64 bytes from 172.10.0.11: icmp_seq=155 ttl=63 time=0.045 ms
64 bytes from 172.10.0.11: icmp_seq=156 ttl=63 time=0.059 ms
64 bytes from 172.10.0.11: icmp_seq=157 ttl=63 time=0.045 ms
64 bytes from 172.10.0.11: icmp_seq=158 ttl=63 time=0.060 ms
64 bytes from 172.10.0.11: icmp_seq=159 ttl=63 time=0.091 ms
64 bytes from 172.10.0.11: icmp_seq=160 ttl=63 time=0.071 ms
64 bytes from 172.10.0.11: icmp_seq=161 ttl=63 time=0.061 ms
64 bytes from 172.10.0.11: icmp_seq=162 ttl=63 time=0.061 ms
64 bytes from 172.10.0.11: icmp_seq=163 ttl=63 time=0.058 ms
64 bytes from 172.10.0.11: icmp_seq=164 ttl=63 time=0.064 ms
64 bytes from 172.10.0.11: icmp_seq=165 ttl=63 time=0.059 ms
64 bytes from 172.10.0.11: icmp_seq=166 ttl=63 time=0.062 ms
64 bytes from 172.10.0.11: icmp_seq=167 ttl=63 time=0.061 ms
64 bytes from 172.10.0.11: icmp_seq=168 ttl=63 time=0.138 ms
64 bytes from 172.10.0.11: icmp_seq=169 ttl=63 time=0.021 ms
64 bytes from 172.10.0.11: icmp_seq=170 ttl=63 time=0.021 ms
64 bytes from 172.10.0.11: icmp_seq=171 ttl=63 time=0.106 ms
64 bytes from 172.10.0.11: icmp_seq=172 ttl=63 time=0.088 ms
64 bytes from 172.10.0.11: icmp_seq=173 ttl=63 time=0.089 ms
64 bytes from 172.10.0.11: icmp_seq=174 ttl=63 time=0.048 ms
64 bytes from 172.10.0.11: icmp_seq=175 ttl=63 time=0.064 ms
64 bytes from 172.10.0.11: icmp_seq=176 ttl=63 time=0.047 ms
64 bytes from 172.10.0.11: icmp_seq=177 ttl=63 time=0.053 ms
64 bytes from 172.10.0.11: icmp_seq=178 ttl=63 time=0.058 ms
64 bytes from 172.10.0.11: icmp_seq=179 ttl=63 time=0.057 ms
64 bytes from 172.10.0.11: icmp_seq=180 ttl=63 time=0.060 ms
64 bytes from 172.10.0.11: icmp_seq=181 ttl=63 time=0.067 ms
64 bytes from 172.10.0.11: icmp_seq=182 ttl=63 time=0.047 ms
64 bytes from 172.10.0.11: icmp_seq=183 ttl=63 time=0.052 ms
64 bytes from 172.10.0.11: icmp_seq=184 ttl=63 time=0.067 ms
64 bytes from 172.10.0.11: icmp_seq=185 ttl=63 time=0.064 ms
64 bytes from 172.10.0.11: icmp_seq=186 ttl=63 time=0.055 ms
64 bytes from 172.10.0.11: icmp_seq=187 ttl=63 time=0.076 ms
64 bytes from 172.10.0.11: icmp_seq=188 ttl=63 time=0.103 ms
64 bytes from 172.10.0.11: icmp_seq=189 ttl=63 time=0.053 ms
64 bytes from 172.10.0.11: icmp_seq=190 ttl=63 time=0.081 ms
64 bytes from 172.10.0.11: icmp_seq=191 ttl=63 time=0.046 ms
64 bytes from 172.10.0.11: icmp_seq=192 ttl=63 time=0.088 ms
64 bytes from 172.10.0.11: icmp_seq=193 ttl=63 time=0.079 ms
64 bytes from 172.10.0.11: icmp_seq=194 ttl=63 time=0.092 ms
64 bytes from 172.10.0.11: icmp_seq=195 ttl=63 time=0.091 ms
64 bytes from 172.10.0.11: icmp_seq=196 ttl=63 time=0.092 ms
64 bytes from 172.10.0.11: icmp_seq=197 ttl=63 time=0.091 ms
64 bytes from 172.10.0.11: icmp_seq=198 ttl=63 time=0.092 ms
64 bytes from 172.10.0.11: icmp_seq=199 ttl=63 time=0.092 ms
64 bytes from 172.10.0.11: icmp_seq=200 ttl=63 time=0.093 ms
64 bytes from 172.10.0.11: icmp_seq=201 ttl=63 time=0.092 ms
64 bytes from 172.10.0.11: icmp_seq=202 ttl=63 time=0.091 ms
64 bytes from 172.10.0.11: icmp_seq=203 ttl=63 time=0.093 ms
64 bytes from 172.10.0.11: icmp_seq=204 ttl=63 time=0.115 ms
64 bytes from 172.10.0.11: icmp_seq=205 ttl=63 time=0.113 ms
64 bytes from 172.10.0.11: icmp_seq=206 ttl=63 time=0.092 ms
64 bytes from 172.10.0.11: icmp_seq=207 ttl=63 time=0.091 ms
64 bytes from 172.10.0.11: icmp_seq=208 ttl=63 time=0.093 ms
64 bytes from 172.10.0.11: icmp_seq=209 ttl=63 time=0.091 ms
64 bytes from 172.10.0.11: icmp_seq=210 ttl=63 time=0.086 ms
64 bytes from 172.10.0.11: icmp_seq=211 ttl=63 time=0.094 ms
64 bytes from 172.10.0.11: icmp_seq=212 ttl=63 time=0.097 ms
64 bytes from 172.10.0.11: icmp_seq=213 ttl=63 time=0.085 ms
64 bytes from 172.10.0.11: icmp_seq=214 ttl=63 time=0.098 ms
64 bytes from 172.10.0.11: icmp_seq=215 ttl=63 time=0.090 ms
64 bytes from 172.10.0.11: icmp_seq=216 ttl=63 time=0.064 ms
64 bytes from 172.10.0.11: icmp_seq=217 ttl=63 time=0.061 ms
64 bytes from 172.10.0.11: icmp_seq=218 ttl=63 time=0.021 ms
64 bytes from 172.10.0.11: icmp_seq=219 ttl=63 time=0.021 ms
64 bytes from 172.10.0.11: icmp_seq=220 ttl=63 time=0.020 ms
64 bytes from 172.10.0.11: icmp_seq=221 ttl=63 time=0.021 ms
64 bytes from 172.10.0.11: icmp_seq=222 ttl=63 time=0.020 ms
64 bytes from 172.10.0.11: icmp_seq=223 ttl=63 time=0.020 ms
64 bytes from 172.10.0.11: icmp_seq=224 ttl=63 time=0.021 ms
64 bytes from 172.10.0.11: icmp_seq=225 ttl=63 time=0.020 ms
64 bytes from 172.10.0.11: icmp_seq=226 ttl=63 time=0.020 ms
64 bytes from 172.10.0.11: icmp_seq=227 ttl=63 time=0.024 ms
64 bytes from 172.10.0.11: icmp_seq=228 ttl=63 time=0.021 ms
64 bytes from 172.10.0.11: icmp_seq=229 ttl=63 time=0.027 ms
64 bytes from 172.10.0.11: icmp_seq=230 ttl=63 time=0.021 ms
64 bytes from 172.10.0.11: icmp_seq=231 ttl=63 time=0.020 ms
64 bytes from 172.10.0.11: icmp_seq=232 ttl=63 time=0.020 ms
64 bytes from 172.10.0.11: icmp_seq=233 ttl=63 time=0.020 ms
64 bytes from 172.10.0.11: icmp_seq=234 ttl=63 time=0.023 ms
64 bytes from 172.10.0.11: icmp_seq=235 ttl=63 time=0.021 ms
64 bytes from 172.10.0.11: icmp_seq=236 ttl=63 time=0.093 ms
64 bytes from 172.10.0.11: icmp_seq=237 ttl=63 time=0.107 ms
64 bytes from 172.10.0.11: icmp_seq=238 ttl=63 time=0.092 ms
64 bytes from 172.10.0.11: icmp_seq=239 ttl=63 time=0.095 ms
64 bytes from 172.10.0.11: icmp_seq=240 ttl=63 time=0.091 ms
64 bytes from 172.10.0.11: icmp_seq=241 ttl=63 time=0.092 ms
64 bytes from 172.10.0.11: icmp_seq=242 ttl=63 time=0.100 ms
64 bytes from 172.10.0.11: icmp_seq=243 ttl=63 time=0.098 ms
64 bytes from 172.10.0.11: icmp_seq=244 ttl=63 time=0.093 ms
64 bytes from 172.10.0.11: icmp_seq=245 ttl=63 time=0.085 ms
64 bytes from 172.10.0.11: icmp_seq=246 ttl=63 time=0.047 ms
64 bytes from 172.10.0.11: icmp_seq=247 ttl=63 time=0.045 ms
64 bytes from 172.10.0.11: icmp_seq=248 ttl=63 time=0.048 ms
64 bytes from 172.10.0.11: icmp_seq=249 ttl=63 time=0.045 ms
64 bytes from 172.10.0.11: icmp_seq=250 ttl=63 time=0.046 ms

--- 172.10.0.11 ping statistics ---
250 packets transmitted, 250 received, 0% packet loss, time 2978ms
rtt min/avg/max/mdev = 0.020/0.072/0.287/0.034 ms
