"RC1","RC2","RC3"
"1",7.62,2.42,0.607
"2",4.12,2.29,0.316
"3",10.9,1.31,0.461
"4",9.25,1.79,0.548
"5",11.6,2.14,0.374
"6",5,1.19,0.592
"7",7.25,1.17,0.541
"8",14.4,1.5,0.636
"9",8,1.78,0.374
"10",4.33,2.09,0.63
"11",7.12,1.13,0.559
"12",6.15,1.59,0.456
"13",7.34,1.15,0.452
"14",5.13,1.58,0.488
"15",5.6,1.62,0.548
"16",9.53,1.28,0.55
"17",4.41,1.26,0.55
"18",5.81,1.37,0.555
"19",7.75,1.82,0.514
"20",7.68,2.2,0.65
"21",4.12,1.97,0.653
"22",6.02,0.908,0.54
"23",3.24,1.07,0.457
"24",3.53,2.55,0.403
"25",2.89,2.69,0.673
"26",3.39,2.57,0.87
"27",2.3,1.09,0.824
"28",2.66,1.74,0.603
"29",6.29,2.98,0.348
"30",9.12,2.1,0.671
"31",6.45,1.9,0.77
"32",1.87,1.72,0.626
"33",7.27,1.71,0.72
"34",6.97,1.65,0.876
"35",5.89,1.48,0.746
"36",3.08,2.53,0.498
"37",1.22,3.13,0.516
"38",1.12,2.85,1
"39",5.53,2.11,0.528
"40",2.68,0.789,0.591
"41",1.95,2.02,0.632
"42",4.13,2.74,0.418
"43",6.05,2.03,0.258
"44",3.6,1.59,0.517
"45",2.5,1.74,0.611
"46",4.91,2.52,0.547
"47",4.24,2.23,0.494
"48",2.71,3.07,0.543
"49",2.64,1.91,0.657
"50",7.29,0.983,0.64
"51",4.54,2.53,0.787
"52",5.22,1.38,0.671
"53",2.62,1.72,0.685
"54",5.8,2.04,0.778
"55",3.7,1.83,0.659
"56",7.96,2.28,0.575
"57",3.07,1.35,0.533
"58",4.08,1.98,0.805
"59",4.43,2.41,0.79
"60",2.03,1.55,0.923
"61",3.86,1.21,0.746
"62",6.68,2.12,0.769
"63",5.94,1.35,0.337
"64",4.3,2.36,0.766
"65",3.23,1.76,0.611
"66",4.48,1.43,0.676
"67",4.22,1.57,0.681
"68",3.22,1.65,0.304
"69",5.12,2.48,0.674
"70",5.57,1.57,0.624
"71",2.89,0.819,0.724
"72",3.41,1.03,0.696
"73",2.39,1.69,0.607
"74",4.25,2.09,0.605
"75",7.79,2.07,0.783
"76",4.3,1.14,0.797
"77",7.73,1.27,1.24
"78",8.99,1.28,0.651
"79",5.21,1.75,0.683
"80",5.25,1.55,0.891
"81",5.5,1.95,0.551
"82",2.72,1.77,0.469
"83",2.81,1.8,0.655
"84",7.01,2.73,0.486
"85",6.72,1.63,0.46
"86",6.19,1.58,0.607
"87",3.52,1.84,0.415
"88",6.88,1.28,0.229
"89",7.88,2.42,0.475
"90",7.21,1.03,0.608
"91",5.19,0.691,0.587
"92",3.31,3.44,0.927
"93",6.58,1.44,0.825
"94",7.86,1.65,0.716
"95",4.86,0.739,0.83
"96",4.95,1.89,0.778
"97",5.44,2.43,0.71
"98",5.65,1.75,0.825
"99",3.56,2.5,0.66
"100",2.86,1.58,0.561
